{
	"districtList": [{
		"id": 1,
		"name": "kadikoy xdock",
		"shortName": "kadikoy xdock",
		"address": "acibadem mah  ciftlik sok no:10 kadikoy i̇stanbul",
		"area": 0,
		"lat": 41.001995,
		"lng": 29.035362
	}, {
		"id": 1267,
		"name": "19 mayis mahallesi muhtarligi",
		"shortName": "19 mayis",
		"address": "19 mayis mah sultan sok  no:23 kadikoy",
		"area": 1,
		"lat": 40.977258,
		"lng": 29.085165
	}, {
		"id": 1268,
		"name": "acibadem mahallesi muhtarligi",
		"shortName": "acibadem (k)",
		"address": "acibadem mah acibadem cad kavakli sok no:2 kadikoy",
		"area": 1,
		"lat": 40.998829,
		"lng": 29.036778
	}, {
		"id": 4307,
		"name": "acibadem mahallesi muhtarligi",
		"shortName": "acibadem (u)",
		"address": "acibadem mah i̇lkbahar sk  no:1",
		"area": 2,
		"lat": 41.005946,
		"lng": 29.049097
	}, {
		"id": 10874,
		"name": "ahmediye mahallesi muhtarligi",
		"shortName": "ahmediye",
		"address": "ahmediye mah sair nabi sk  no:40",
		"area": 2,
		"lat": 41.016465,
		"lng": 29.017952
	}, {
		"id": 1421,
		"name": "altunizade mahallesi muhtarligi",
		"shortName": "altunizade",
		"address": "altunizade mah haluk turksoy sk  no: 6/1",
		"area": 2,
		"lat": 41.02433,
		"lng": 29.039258
	}, {
		"id": 5000,
		"name": "aziz mahmud hudayi mahallesi muhtarligi",
		"shortName": "aziz mahmud hudayi",
		"address": "dogancilar cd  oymasaray cikmazi yildirim park i̇ci",
		"area": 2,
		"lat": 41.020968,
		"lng": 29.011217
	}, {
		"id": 1426,
		"name": "bahcelievler mahallesi muhtarligi",
		"shortName": "bahcelievler",
		"address": "bahcelievler mah  sultan murat cd  no: 2",
		"area": 2,
		"lat": 41.060379,
		"lng": 29.07818
	}, {
		"id": 1427,
		"name": "barbaros mahallesi muhtarligi",
		"shortName": "barbaros",
		"address": "barbaros mah maresal sk  no: 14",
		"area": 2,
		"lat": 41.01492,
		"lng": 29.032344
	}, {
		"id": 1428,
		"name": "beylerbeyi mahallesi muhtarligi",
		"shortName": "beylerbeyi",
		"address": "beylerbeyi mah abdullahaga hamami sk  no: 17",
		"area": 2,
		"lat": 41.043171,
		"lng": 29.043483
	}, {
		"id": 1276,
		"name": "bostanci mahallesi muhtarligi",
		"shortName": "bostanci",
		"address": "bostanci mah sabit pazari cikisi kadikoy",
		"area": 1,
		"lat": 40.95402,
		"lng": 29.096481
	}, {
		"id": 1429,
		"name": "bulgurlu mahallesi muhtarligi",
		"shortName": "bulgurlu",
		"address": "bulgurlu cd  no:91",
		"area": 2,
		"lat": 41.020057,
		"lng": 29.0841
	}, {
		"id": 1430,
		"name": "burhaniye mahallesi muhtarligi",
		"shortName": "burhaniye",
		"address": "camlica cd  aziziye parki girisi",
		"area": 2,
		"lat": 41.028849,
		"lng": 29.058532
	}, {
		"id": 1278,
		"name": "caddebostan mahallesi muhtarligi",
		"shortName": "caddebostan",
		"address": "caddebostan mah sarigul sok no:18/a kadikoy",
		"area": 1,
		"lat": 40.968815,
		"lng": 29.06167
	}, {
		"id": 1279,
		"name": "caferaga mahallesi muhtarligi",
		"shortName": "caferaga",
		"address": "caferaga sairnefi sok no:26",
		"area": 1,
		"lat": 40.983057,
		"lng": 29.02593
	}, {
		"id": 1431,
		"name": "cumhuriyet mahallesi muhtarligi",
		"shortName": "cumhuriyet",
		"address": "cumhuriyet mah esatpasa cd  no:12/a",
		"area": 2,
		"lat": 41.014377,
		"lng": 29.081035
	}, {
		"id": 1432,
		"name": "cengelkoy mahallesi muhtarligi",
		"shortName": "cengelkoy",
		"address": "cengelkoy mah tanriverdi sk  no: 16",
		"area": 2,
		"lat": 41.051113,
		"lng": 29.052984
	}, {
		"id": 1283,
		"name": "dumlupinar mahallesi muhtarligi",
		"shortName": "dumlupinar",
		"address": "dumlupinar mah dr erkin cd no:44 kadikoy",
		"area": 1,
		"lat": 40.987707,
		"lng": 29.057045
	}, {
		"id": 1284,
		"name": "egitim mahallesi muhtarligi",
		"shortName": "egitim",
		"address": "egitim mah postane sok no:16 kadikoy",
		"area": 1,
		"lat": 40.987126,
		"lng": 29.049729
	}, {
		"id": 1285,
		"name": "erenkoy mahallesi muhtarligi",
		"shortName": "erenkoy",
		"address": "erenkoy mah dr mithat suer sok  22/1/a kadikoy",
		"area": 1,
		"lat": 40.977475,
		"lng": 29.0739
	}, {
		"id": 1286,
		"name": "fenerbahce mahallesi muhtarligi",
		"shortName": "fenerbahce",
		"address": "fenerbahce mah ahmet mithat efendi cad no:57/2 kadikoy",
		"area": 1,
		"lat": 40.975022,
		"lng": 29.043116
	}, {
		"id": 1287,
		"name": "feneryolu mahallesi muhtarligi",
		"shortName": "feneryolu",
		"address": "feneryolu mah lale sok  no: 12 kadikoy",
		"area": 1,
		"lat": 40.984827,
		"lng": 29.04838
	}, {
		"id": 1436,
		"name": "ferah mahallesi muhtarligi",
		"shortName": "ferah",
		"address": "ferah mah ferah yolu no:3",
		"area": 2,
		"lat": 41.033287,
		"lng": 29.07339
	}, {
		"id": 1288,
		"name": "fikirtepe mahallesi muhtarligi",
		"shortName": "fikirtepe",
		"address": "fikirtepe mah yildirim sok  no:16 kadikoy",
		"area": 1,
		"lat": 40.994006,
		"lng": 29.049517
	}, {
		"id": 1289,
		"name": "goztepe mahallesi muhtarligi",
		"shortName": "goztepe",
		"address": "goztepe mah hamit ozkay sok no:21 kadikoy",
		"area": 1,
		"lat": 40.979199,
		"lng": 29.06448
	}, {
		"id": 1440,
		"name": "guzeltepe mahallesi muhtarligi",
		"shortName": "guzeltepe",
		"address": "guzeltepe mah namazgah cad no:14",
		"area": 2,
		"lat": 41.04576,
		"lng": 29.070327
	}, {
		"id": 1290,
		"name": "hasanpasa mahallesi muhtarligi",
		"shortName": "hasanpasa",
		"address": "hasanpasa mah faikbey sok  no:19 kadikoy",
		"area": 1,
		"lat": 40.994744,
		"lng": 29.037524
	}, {
		"id": 1446,
		"name": "icadiye mahallesi muhtarligi",
		"shortName": "icadiye",
		"address": "icadiye mah camlica cd  no: 2",
		"area": 2,
		"lat": 41.027099,
		"lng": 29.033998
	}, {
		"id": 1449,
		"name": "kandilli mahallesi muhtarligi",
		"shortName": "kandilli",
		"address": "kandilli mah goksu cd  no: 3",
		"area": 2,
		"lat": 41.074266,
		"lng": 29.058834
	}, {
		"id": 4998,
		"name": "kisikli mahallesi muhtarligi",
		"shortName": "kisikli",
		"address": "kisikli mah ferah cd  no: 32",
		"area": 2,
		"lat": 41.025985,
		"lng": 29.074706
	}, {
		"id": 1451,
		"name": "kirazlitepe mahallesi muhtarligi",
		"shortName": "kirazlitepe",
		"address": "kirazlitepe mah saglik sk  no:2",
		"area": 2,
		"lat": 41.037008,
		"lng": 29.062978
	}, {
		"id": 1299,
		"name": "kosuyolu mahallesi muhtarligi",
		"shortName": "kosuyolu",
		"address": "kosuyolu sok mahmut yesari sok  50/c kadikoy",
		"area": 1,
		"lat": 41.008938,
		"lng": 29.035664
	}, {
		"id": 1300,
		"name": "kozyatagi mahallesi muhtarligi",
		"shortName": "kozyatagi",
		"address": "kozyatagi mah sarikaya sok no:1/1 kadikoy",
		"area": 1,
		"lat": 40.96844,
		"lng": 29.098069
	}, {
		"id": 1452,
		"name": "kuleli mahallesi muhtarligi",
		"shortName": "kuleli",
		"address": "vanikoy cd  no:103",
		"area": 2,
		"lat": 41.060636,
		"lng": 29.063589
	}, {
		"id": 1453,
		"name": "kuzguncuk mahallesi muhtarligi",
		"shortName": "kuzguncuk",
		"address": "kuzguncuk mah mesruta sk  no:1",
		"area": 2,
		"lat": 41.033296,
		"lng": 29.031272
	}, {
		"id": 4999,
		"name": "kucuk camlica mahallesi muhtarligi",
		"shortName": "kucuk camlica",
		"address": "cilhane sk  saffet cebi i̇ o o  ustu hudayi parki i̇ci",
		"area": 2,
		"lat": 41.010391,
		"lng": 29.064362
	}, {
		"id": 1454,
		"name": "kucuksu mahallesi muhtarligi",
		"shortName": "kucuksu",
		"address": "kucuksu mah  omurtepe yokusu sk  no: 99",
		"area": 2,
		"lat": 41.069336,
		"lng": 29.065771
	}, {
		"id": 1455,
		"name": "kupluce mahallesi muhtarligi",
		"shortName": "kupluce",
		"address": "kupluce mah mehmet akif ersoy cd  no: 17",
		"area": 2,
		"lat": 41.039048,
		"lng": 29.053825
	}, {
		"id": 10875,
		"name": "mehmet akif ersoy mahallesi muhtarligi",
		"shortName": "mehmet akif ersoy",
		"address": "mehmet akif ersoy mah ayisigi sk  no: 8",
		"area": 2,
		"lat": 41.042845,
		"lng": 29.070048
	}, {
		"id": 1303,
		"name": "merdivenkoy mahallesi muhtarligi",
		"shortName": "merdivenkoy",
		"address": "merdivenkoy mah uzuncayir yolu sk no:3 kadikoy",
		"area": 1,
		"lat": 40.982221,
		"lng": 29.069256
	}, {
		"id": 5001,
		"name": "mimar sinan mahallesi muhtarligi",
		"shortName": "mimar sinan",
		"address": "mimar sinan mah atlas cikmazi sk  no: 31",
		"area": 2,
		"lat": 41.023457,
		"lng": 29.017815
	}, {
		"id": 1458,
		"name": "murat reis mahallesi muhtarligi",
		"shortName": "murat reis",
		"address": "murat reis mah duduoglu sk  no: 19",
		"area": 2,
		"lat": 41.023541,
		"lng": 29.030601
	}, {
		"id": 1305,
		"name": "osmanaga mahallesi muhtarligi",
		"shortName": "osmanaga",
		"address": "goztepe mah pazar yolu sok  kadikoy",
		"area": 1,
		"lat": 40.985055,
		"lng": 29.033885
	}, {
		"id": 1306,
		"name": "rasimpasa mahallesi muhtarligi",
		"shortName": "rasimpasa",
		"address": "rasimpasa mah dispanser sok no:3 kadikoy",
		"area": 1,
		"lat": 40.992711,
		"lng": 29.033128
	}, {
		"id": 1307,
		"name": "sahrayicedid mahallesi muhtarligi",
		"shortName": "sahrayicedid",
		"address": "sahrayicedid mah cebesoy sok  no:2 kadikoy",
		"area": 1,
		"lat": 40.984969,
		"lng": 29.08317
	}, {
		"id": 1463,
		"name": "salacak mahallesi muhtarligi",
		"shortName": "salacak",
		"address": "salacak mah pasakapisi sk  no: 2 ogretmenler park i̇ci",
		"area": 2,
		"lat": 41.017583,
		"lng": 29.013804
	}, {
		"id": 1464,
		"name": "selamiali mahallesi muhtarligi",
		"shortName": "selamiali",
		"address": "selami ali mah gazi cd  no:39",
		"area": 2,
		"lat": 41.023676,
		"lng": 29.033653
	}, {
		"id": 1465,
		"name": "selimiye mahallesi muhtarligi",
		"shortName": "selimiye",
		"address": "selimiye mah selimiye kisla cd  park i̇ci",
		"area": 2,
		"lat": 41.010596,
		"lng": 29.017421
	}, {
		"id": 1310,
		"name": "suadiye mahallesi muhtarligi",
		"shortName": "suadiye",
		"address": "suadiye mah oncu sok  no:9 suadiye",
		"area": 1,
		"lat": 40.960286,
		"lng": 29.084994
	}, {
		"id": 10876,
		"name": "sultantepe mahallesi muhtarligi",
		"shortName": "sultantepe",
		"address": "sultantepe mah selvilik cd  no: 71",
		"area": 2,
		"lat": 41.028021,
		"lng": 29.020939
	}, {
		"id": 1472,
		"name": "unalan mahallesi muhtarligi",
		"shortName": "unalan",
		"address": "unalan mah soyak cami sk  no: 4/a",
		"area": 2,
		"lat": 41.001616,
		"lng": 29.069127
	}, {
		"id": 1473,
		"name": "valide-i atik mahallesi muhtarligi",
		"shortName": "validei atik",
		"address": "valide-i atik mah cinili cami sk  no:24",
		"area": 2,
		"lat": 41.019535,
		"lng": 29.026165
	}, {
		"id": 1475,
		"name": "yavuzturk mahallesi muhtarligi",
		"shortName": "yavuzturk",
		"address": "yavuzturk mah karadeniz cd  no: 22/2",
		"area": 2,
		"lat": 41.032224,
		"lng": 29.081657
	}, {
		"id": 4243,
		"name": "zeynep kamil mahallesi muhtarligi",
		"shortName": "zeynep kamil",
		"address": "dr burhanettin ustunel cd  no: 2/b",
		"area": 2,
		"lat": 41.014402,
		"lng": 29.024408
	}, {
		"id": 1317,
		"name": "zuhtupasa mahallesi muhtarligi",
		"shortName": "zuhtupasa",
		"address": "zuhtupasa mah asimurs sok  18/a kiziltoprak/kadikoy",
		"area": 1,
		"lat": 40.985018,
		"lng": 29.041609
	}]
}